Pagina Web_G2
…
Valores atipicos: Inti

Code

library(inti)
model <- remove_outliers(data = dat
                         ,formula = tubdw ~ riego + geno +riego*geno + (1 | bloque)
                         , plot_diag = T
                         )
model
## $data
## $data$raw
## # A tibble: 150 × 5
##    index riego    geno  bloque tubdw
##    <chr> <chr>    <chr> <chr>  <dbl>
##  1 1     sequia   G01   II     19.8 
##  2 2     sequia   G02   IV     17.7 
##  3 3     irrigado G01   III    38.0 
##  4 4     sequia   G02   I      13.5 
##  5 5     irrigado G03   II     51.2 
##  6 6     irrigado G04   V      62.5 
##  7 7     irrigado G01   I      22.4 
##  8 8     irrigado G05   IV     51.4 
##  9 9     sequia   G06   II      2.37
## 10 10    sequia   G05   I      28.7 
## # ℹ 140 more rows
## 
## $data$clean
##     index    riego geno bloque tubdw
## 1       1   sequia  G01     II 19.80
## 2       2   sequia  G02     IV 17.67
## 3       3 irrigado  G01    III 38.02
## 4       4   sequia  G02      I 13.51
## 5       5 irrigado  G03     II 51.15
…
Valores atipicos: Inti

Code

library(inti)

model <- remove_outliers(data = dat
                             , formula = twue ~ riego * geno + (1|bloque)
                         , plot_diag = T)
model
## $data
## $data$raw
## # A tibble: 150 × 5
##    index riego    geno  bloque  twue
##    <chr> <chr>    <chr> <chr>  <dbl>
##  1 1     sequia   G01   II     4.40 
##  2 2     sequia   G02   IV     4.99 
##  3 3     irrigado G01   III    4.53 
##  4 4     sequia   G02   I      4.65 
##  5 5     irrigado G03   II     6.94 
##  6 6     irrigado G04   V      6.23 
##  7 7     irrigado G01   I      3.51 
##  8 8     irrigado G05   IV     5.55 
##  9 9     sequia   G06   II     0.543
## 10 10    sequia   G05   I      5.57 
## # ℹ 140 more rows
## 
## $data$clean
##     index    riego geno bloque      twue
## 1       1   sequia  G01     II 4.4009780
## 2       2   sequia  G02     IV 4.9943471
## 3       3 irrigado  G01    III 4.5326657
## 4       4   sequia  G02      I 4.6522039
## 5       5 irrigado  G03     II 6.9402985
…
